7 / 1 = 7
7 / 2 = 3.5
7 / 3 = 2.3333333333333335
7 / 4 = 1.75
7 / 5 = 1.4
7 / 6 = 1.1666666666666667
7 / 7 = 1
7 / 8 = 0.875
7 / 9 = 0.7777777777777778
7 / 10 = 0.7
7 / 11 = 0.6363636363636364
7 / 12 = 0.5833333333333334
7 / 13 = 0.5384615384615384
7 / 14 = 0.5
7 / 15 = 0.4666666666666667
7 / 16 = 0.4375
7 / 17 = 0.4117647058823529
7 / 18 = 0.3888888888888889
7 / 19 = 0.3684210526315789
7 / 20 = 0.35
